graph malla {
ratio="0.7";
overlap = false;
splines = true;
nodesep = 10.0;
ranksep = 10.0;
{  // noies
node [shape=ellipse, penwidth=2, style=rounded, color=red]
joana
}  // noies
{  // nois
node [shape=box, penwidth=2, color=blue]
carles
sebastià
}  // nois
{  // altres noies
node [shape=ellipse, penwidth=2, style=dashed, color=red]
}  // altres noies
{  // altres nois
node [shape=box, penwidth=2, style=dashed, color=blue]
bergant1
ganàpia1
}  // altres nois

// lios
carles -- joana
sebastià -- joana
joana -- bergant1
carles -- ganàpia1
}  // graph primavera
